+375336054928;12001
+375295742244;12002
+375257710997;12003
+375447296781;12004
+375256103728;12005
+375298582793;12006
+375292592173;12007
+375257605267;12008
+375336983296;12009
+375333530325;12010
+375447666888;12011
+375298151103;12012
+375297718628;12013
+375445353714;12014
+375333719404;12015
+375297435836;12016
+375333126884;12017
+375296594155;12018
+375333365608;12019
+375255155834;12020
+375298558386;12021
+375297175440;12022
+375293023214;12023
+375336741098;12024
+375295953995;12025
+375295218796;12026
+375293681480;12027
+375297753377;12028
+375259324105;12029
+375447500508;12030
+375333732474;12031
+375296815071;12032
+375444514564;12033
+375298120912;12034
+375298737535;12035
+375298773717;12036
+375297136271;12037
+375295552677;12038
+375291234085;12039
+375295450024;12040
+375299838467;12041
+375297640267;12042
+375297347557;12043
+375297955911;12044
+375295569096;12045
+375296465171;12046
+375295787493;12047
+375257091937;12048
+375297298480;12049
+375257609046;12050
+375298868331;12051
+375444904948;12052
+375297495308;12053
+375447945926;12054
+375291702124;12055
+375298645168;12056
+375292371026;12057
+375336175458;12058
+375296737683;12059
+375298717051;12060
+375293606833;12061
+375296267392;12062
+375298230211;12063
+375336805989;12064
+375296301171;12065
+375259543631;12066
+375296906901;12067
+375333212874;12068
+375445115492;12069
+375292163270;12070
+375336129533;12071
+375297156058;12072
+375298744483;12073
+375447449715;12074
+375298259336;12075
+375336385060;12076
+375256848552;12077
+375297735945;12078
+375296465393;12079
+375291254080;12080
+375447310471;12081
+375297710772;12082
+375298029302;12083
+375298121599;12084
+375297721278;12085
+375292366003;12086
+375296622427;12087
+375296820400;12088
+375295185904;12089
+375447653775;12090
+375292824792;12091
+375293373856;12092
+375295608160;12093
+375333939054;12094
+375296410867;12095
+375297923172;12096
+375297263870;12097
+375268555308;12098
+375336292867;12099
+375295843295;12100
+375292271375;12101
+375296246815;12102
+375447391700;12103
+375444848096;12104
+375298747908;12105
+375298932269;12106
+375257185155;12107
+375298270661;12108
+375292208300;12109
+375297737902;12110
+375299444434;12111
+375295169939;12112
+375291420652;12113
+375296798938;12114
+375298279534;12115
+375447623969;12116
+375333202856;12117
+375297122152;12118
+375292084752;12119
+375336176607;12120
+375293622819;12121
+375447890637;12122
+375447382811;12123
+375298696919;12124
+375333755128;12125
+375292926616;12126
+375296134844;12127
+375295784157;12128
+375293748707;12129
+375293868057;12130
+375292778201;12131
+375296107632;12132
+375333886767;12133
+375291593802;12134
+375257194974;12135
+375298882967;12136
+375298267905;12137
+375291141844;12138
+375257156883;12139
+375336381843;12140
+375297235924;12141
+375259641674;12142
+375295770329;12143
+375298503591;12144
+375295146500;12145
+375297145955;12146
+375336310999;12147
+375292353330;12148
+375292464858;12149
+375292226624;12150
+375333286936;12151
+375333225674;12152
+375333169090;12153
+375339007337;12154
+375298766751;12155
+375295866096;12156
+375336939389;12157
+375293525097;12158
+375333835140;12159
+375292085464;12160
+375293357247;12161
+375447027819;12162
+375298526111;12163
+375298667373;12164
+375292776760;12165
+375292522223;12166
+375298839811;12167
+375295868392;12168
+375336363421;12169
+375259296568;12170
+375298473278;12171
+375447631160;12172
+375297803768;12173
+375295802737;12174
+375333364447;12175
+375297675303;12176
+375333565813;12177
+375444622069;12178
+375295973470;12179
+375293846810;12180
+375445543844;12181
+375297073258;12182
+375336072914;12183
+375292692578;12184
+375447691847;12185
+375299272999;12186
+375297050787;12187
+375295394914;12188
+375291312987;12189
+375298229937;12190
+375256404298;12191
+375293269148;12192
+375333298210;12193
+375295508973;12194
+375297190983;12195
+375291788297;12196
+375295088584;12197
+375292530493;12198
+375257524944;12199
+375295998773;12200
+375333107400;12201
+375291462971;12202
+375298853139;12203
+375298784363;12204
+375296588335;12205
+375295060995;12206
+375298121028;12207
+375257096505;12208
+375292445966;12209
+375296044292;12210
+375259195649;12211
+375296724461;12212
+375447964890;12213
+375336411041;12214
+375336591357;12215
+375259073468;12216
+375333450604;12217
+375297174741;12218
+375296284476;12219
+375295535519;12220
+375255008952;12221
+375291166909;12222
+375333718091;12223
+375336293043;12224
+375295724299;12225
+375259045368;12226
+375295519483;12227
+375291295082;12228
+375292683395;12229
+375296138238;12230
+375447218045;12231
+375256703857;12232
+375257003150;12233
+375297483793;12234
+375447937089;12235
+375298885106;12236
+375445853750;12237
+375299202377;12238
+375292359487;12239
+375295255198;12240
+375336895783;12241
+375297205867;12242
+375295557910;12243
+375297741182;12244
+375296385882;12245
+375292176054;12246
+375298024002;12247
+375296520405;12248
+375445928169;12249
+375296184764;12250
+375333059913;12251
+375293589074;12252
+375447117291;12253
+375295486726;12254
+375292830319;12255
+375259659276;12256
+375333633937;12257
+375292753601;12258
+375299118077;12259
+375336702792;12260
+375255471214;12261
+375293884651;12262
+375298523472;12263
+375336850181;12264
+375259491629;12265
+375292466004;12266
+375291577503;12267
+375291300275;12268
+375296830498;12269
+375299383298;12270
+375292742562;12271
+375297628493;12272
+375336007112;12273
+375298415640;12274
+375292191971;12275
+375336043332;12276
+375297630272;12277
+375257849812;12278
+375445112904;12279
+375293368477;12280
+375297849005;12281
+375295278812;12282
+375293454641;12283
+375297902456;12284
+375293201400;12285
+375292684058;12286
+375296823214;12287
+375296064114;12288
+375299523209;12289
+375336029670;12290
+375336386878;12291
+375293509736;12292
+375444545477;12293
+375293032076;12294
+375298830451;12295
+375447785976;12296
+375297692720;12297
+375297541501;12298
+375298594834;12299
+375336944369;12300
+375259718000;12301
+375292715775;12302
+375447204319;12303
+375336689957;12304
+375291145557;12305
+375295581410;12306
+375333186707;12307
+375293443408;12308
+375291372932;12309
+375298639880;12310
+375296496470;12311
+375293226332;12312
+375292173859;12313
+375297266230;12314
+375293316158;12315
+375296161794;12316
+375298797062;12317
+375298232672;12318
+375298867670;12319
+375295374819;12320
+375297647849;12321
+375293749632;12322
+375336969224;12323
+375336058607;12324
+375295035169;12325
+375292665399;12326
+375295561264;12327
+375298235243;12328
+375293239316;12329
+375336559110;12330
+375297535996;12331
+375298433877;12332
+375298887893;12333
+375295883725;12334
+375297743951;12335
+375298850176;12336
+375292621102;12337
+375298650353;12338
+375291921613;12339
+375295864834;12340
+375259343754;12341
+375299489915;12342
+375333470492;12343
+375444701482;12344
+375297774882;12345
+375292894058;12346
+375333228675;12347
+375298619084;12348
+375336849227;12349
+375295401437;12350
+375292787855;12351
+375297238106;12352
+375292130396;12353
+375295907638;12354
+375255411574;12355
+375297065128;12356
+375293852562;12357
+375292886042;12358
+375293578616;12359
+375298519468;12360
+375297408345;12361
+375296945767;12362
+375445172924;12363
+375299254167;12364
+375295814136;12365
+375336041399;12366
+375445592359;12367
+375292545979;12368
+375257356806;12369
+375444714154;12370
+375297751546;12371
+375336269799;12372
+375298302893;12373
+375295869772;12374
+375298987131;12375
+375297724479;12376
+375336210341;12377
+375296407397;12378
+375297497009;12379
+375298347989;12380
+375298796529;12381
+375444157865;12382
+375293405939;12383
+375295079604;12384
+375293707060;12385
+375298939297;12386
+375255211488;12387
+375336685185;12388
+375445965506;12389
+375298429964;12390
+375298604142;12391
+375447774208;12392
+375297015302;12393
+375296833993;12394
+375291959075;12395
+375259034823;12396
+375291928345;12397
+375292791585;12398
+375296244006;12399
+375293277386;12400
+375291084207;12401
+375296327374;12402
+375291894153;12403
+375447074935;12404
+375257886897;12405
+375299993604;12406
+375296771955;12407
+375333071822;12408
+375296640615;12409
+375447472956;12410
+375297882053;12411
+375333618525;12412
+375298619381;12413
+375296181901;12414
+375292918246;12415
+375336823178;12416
+375447268091;12417
+375444948450;12418
+375297254905;12419
+375295068808;12420
+375293305215;12421
+375291268626;12422
+375293331637;12423
+375295939523;12424
+375291015334;12425
+375297403374;12426
+375445591677;12427
+375295980069;12428
+375298373272;12429
+375336730494;12430
+375298247279;12431
+375447734616;12432
+375295513042;12433
+375257913631;12434
+375291341683;12435
+375336698037;12436
+375293377732;12437
+375296830414;12438
+375297551181;12439
+375296212654;12440
+375447594486;12441
+375297133267;12442
+375295934551;12443
+375447654554;12444
+375447498211;12445
+375336918900;12446
+375298081892;12447
+375333726653;12448
+375297717722;12449
+375299936403;12450
+375293439225;12451
+375295175613;12452
+375296701319;12453
+375295474074;12454
+375292572624;12455
+375291565465;12456
+375336906260;12457
+375298623048;12458
+375295580458;12459
+375333291326;12460
+375295859924;12461
+375447012145;12462
+375259230340;12463
+375292638556;12464
+375295115611;12465
+375297436267;12466
+375295753299;12467
+375297628661;12468
+375336344493;12469
+375295815444;12470
+375295535637;12471
+375333831535;12472
+375298654495;12473
+375445925107;12474
+375291838365;12475
+375297102464;12476
+375297742263;12477
+375292151411;12478
+375445288490;12479
+375292555808;12480
+375292513670;12481
+375296993416;12482
+375291640122;12483
+375291044929;12484
+375333761929;12485
+375257181288;12486
+375293352649;12487
+375333823861;12488
+375293109294;12489
+375293236470;12490
+375292072500;12491
+375297055628;12492
+375336527836;12493
+375293137750;12494
+375296512436;12495
+375292461399;12496
+375298654984;12497
+375336045611;12498
+375295769628;12499
+375291976507;12500
+375296596934;12501
+375292969111;12502
+375257964353;12503
+375333763365;12504
+375293840438;12505
+375447551976;12506
+375291840483;12507
+375447547556;12508
+375295018174;12509
+375257856258;12510
+375293937021;12511
+375292264969;12512
+375291999022;12513
+375295405580;12514
+375333229311;12515
+375296236394;12516
+375336274737;12517
+375296906042;12518
+375291977131;12519
+375255377083;12520
+375256170894;12521
+375296902686;12522
+375333080898;12523
+375333721790;12524
+375298284646;12525
+375299116393;12526
+375297073270;12527
+375295731098;12528
+375291147729;12529
+375336652232;12530
+375445340871;12531
+375298958428;12532
+375298827363;12533
+375298190313;12534
+375295610566;12535
+375333366877;12536
+375336461732;12537
+375298060199;12538
+375336771642;12539
+375292671732;12540
+375336432677;12541
+375291242097;12542
+375298104033;12543
+375291505615;12544
+375298805726;12545
+375333069518;12546
+375336465464;12547
+375336750388;12548
+375299384990;12549
+375333458747;12550
+375257541895;12551
+375293153032;12552
+375293620735;12553
+375259062218;12554
+375257011538;12555
+375259245169;12556
+375336451188;12557
+375295507916;12558
+375299367763;12559
+375333132189;12560
+375297853600;12561
+375447337507;12562
+375336290778;12563
+375297601267;12564
+375291700183;12565
+375298705784;12566
+375336695718;12567
+375336473771;12568
+375336484813;12569
+375297089180;12570
+375447735804;12571
+375298284361;12572
+375333514082;12573
+375297660184;12574
+375298247555;12575
+375339022822;12576
+375296516885;12577
+375298955249;12578
+375297218517;12579
+375298944903;12580
+375298174065;12581
+375292697133;12582
+375291937500;12583
+375291468971;12584
+375298780012;12585
+375297465917;12586
+375296833989;12587
+375259308439;12588
+375444951606;12589
+375298047788;12590
+375447262674;12591
+375336976142;12592
+375293680246;12593
+375336320899;12594
+375447801112;12595
+375257814661;12596
+375293528348;12597
+375295944030;12598
+375333797184;12599
+375336214965;12600
+375291751439;12601
+375291322699;12602
+375297003258;12603
+375445535279;12604
+375297674354;12605
+375292275453;12606
+375298180043;12607
+375336274296;12608
+375333129939;12609
+375447102259;12610
+375447731756;12611
+375293101778;12612
+375447582387;12613
+375293724592;12614
+375447778897;12615
+375295255981;12616
+375293789322;12617
+375293315735;12618
+375447279750;12619
+375295093167;12620
+375298559238;12621
+375257795035;12622
+375297176072;12623
+375295599679;12624
+375295044324;12625
+375292809340;12626
+375447677080;12627
+375259214672;12628
+375297443551;12629
+375295461895;12630
+375292737605;12631
+375296532945;12632
+375292983430;12633
+375292113750;12634
+375292137697;12635
+375292983857;12636
+375336454736;12637
+375292800640;12638
+375447801707;12639
+375295299905;12640
+375296162029;12641
+375297571126;12642
+375291202955;12643
+375293150421;12644
+375256045597;12645
+375333289850;12646
+375291399564;12647
+375293309673;12648
+375447597718;12649
+375291141284;12650
+375298089727;12651
+375333089210;12652
+375295289431;12653
+375292241936;12654
+375297175666;12655
+375297836113;12656
+375297304901;12657
+375292537498;12658
+375295291609;12659
+375292437126;12660
+375298705875;12661
+375296457959;12662
+375447476795;12663
+375295129569;12664
+375298684663;12665
+375293772510;12666
+375297077962;12667
+375297987950;12668
+375445772770;12669
+375255070209;12670
+375291875741;12671
+375299911065;12672
+375297771712;12673
+375292316638;12674
+375333662012;12675
+375298973965;12676
+375295995737;12677
+375297924027;12678
+375291290073;12679
+375295068098;12680
+375293361564;12681
+375336808087;12682
+375445829258;12683
+375291069884;12684
+375297816177;12685
+375255098916;12686
+375298962114;12687
+375255438413;12688
+375298744746;12689
+375291623979;12690
+375298394490;12691
+375298646824;12692
+375296974668;12693
+375291991494;12694
+375297577822;12695
+375297333381;12696
+375336023939;12697
+375336317680;12698
+375292830535;12699
+375259543112;12700
+375295493162;12701
+375298870978;12702
+375297483403;12703
+375297861544;12704
+375298724372;12705
+375445257031;12706
+375291714601;12707
+375297262722;12708
+375445812999;12709
+375259875106;12710
+375445447609;12711
+375336718873;12712
+375295995432;12713
+375296951185;12714
+375336611357;12715
+375297429699;12716
+375336657952;12717
+375292766213;12718
+375256063212;12719
+375447329967;12720
+375292331213;12721
+375298881070;12722
+375295766411;12723
+375293356218;12724
+375298864888;12725
+375296632724;12726
+375445447602;12727
+375291486193;12728
+375292968758;12729
+375336226419;12730
+375295004708;12731
+375293887414;12732
+375295603880;12733
+375291324054;12734
+375293916302;12735
+375445653340;12736
+375295865167;12737
+375336896311;12738
+375291710661;12739
+375291590080;12740
+375293183191;12741
+375299645794;12742
+375336045799;12743
+375298507457;12744
+375293062155;12745
+375292031483;12746
+375291914808;12747
+375296314541;12748
+375297985819;12749
+375295688113;12750
+375336159708;12751
+375292586496;12752
+375293231659;12753
+375296883587;12754
+375295428095;12755
+375299913843;12756
+375333461341;12757
+375447246415;12758
+375292106043;12759
+375333354192;12760
+375447377037;12761
+375293681971;12762
+375292612452;12763
+375295671731;12764
+375259180076;12765
+375297799995;12766
+375336515463;12767
+375299594055;12768
+375293079881;12769
+375333764584;12770
+375297197483;12771
+375296347172;12772
+375298931527;12773
+375297651021;12774
+375293772899;12775
+375298765841;12776
+375299305156;12777
+375447941878;12778
+375333441114;12779
+375297728387;12780
+375295802412;12781
+375292749254;12782
+375339048396;12783
+375259227131;12784
+375336365515;12785
+375291050883;12786
+375336911627;12787
+375336115611;12788
+375259451631;12789
+375336732951;12790
+375298066108;12791
+375293705471;12792
+375336470169;12793
+375447407870;12794
+375292775388;12795
+375292666443;12796
+375336461140;12797
+375293619168;12798
+375257134222;12799
+375299917301;12800
+375295865109;12801
+375293386417;12802
+375297630058;12803
+375298524705;12804
+375255086461;12805
+375447728359;12806
+375293080002;12807
+375293665968;12808
+375297935721;12809
+375297145519;12810
+375291963249;12811
+375295863733;12812
+375336155937;12813
+375445413953;12814
+375298845524;12815
+375444813358;12816
+375298412293;12817
+375295172244;12818
+375298462843;12819
+375296277827;12820
+375293077294;12821
+375296159674;12822
+375293302603;12823
+375291741395;12824
+375445315589;12825
+375295601913;12826
+375291182981;12827
+375297065644;12828
+375295996802;12829
+375293593903;12830
+375295173023;12831
+375296457353;12832
+375295915630;12833
+375296826373;12834
+375297206851;12835
+375445774940;12836
+375295600904;12837
+375445959433;12838
+375255034569;12839
+375298225835;12840
+375298975729;12841
+375297985939;12842
+375445972840;12843
+375291541340;12844
+375299863940;12845
+375292524861;12846
+375293551986;12847
+375296895804;12848
+375297806218;12849
+375291096404;12850
+375293522371;12851
+375257560447;12852
+375292038112;12853
+375299350418;12854
+375295091503;12855
+375447550501;12856
+375296854899;12857
+375297229561;12858
+375291120112;12859
+375297759871;12860
+375295902035;12861
+375295369267;12862
+375293439950;12863
+375445362350;12864
+375257795787;12865
+375333168957;12866
+375296142754;12867
+375296791671;12868
+375291799775;12869
+375298144547;12870
+375333036336;12871
+375291350783;12872
+375336444438;12873
+375293669907;12874
+375292815483;12875
+375445991585;12876
+375292968027;12877
+375336088146;12878
+375299685048;12879
+375292408814;12880
+375447287553;12881
+375297539558;12882
+375291925727;12883
+375259780508;12884
+375291537873;12885
+375291068440;12886
+375295081092;12887
+375447356588;12888
+375297495377;12889
+375447295162;12890
+375447429691;12891
+375293906036;12892
+375447794104;12893
+375295343536;12894
+375336635839;12895
+375299131529;12896
+375336669434;12897
+375295827276;12898
+375292174784;12899
+375298215428;12900
+375297901649;12901
+375295260069;12902
+375336866465;12903
+375295410203;12904
+375295485035;12905
+375295978542;12906
+375298622346;12907
+375291064671;12908
+375296164516;12909
+375298424429;12910
+375333425494;12911
+375336511539;12912
+375257510797;12913
+375445714460;12914
+375297933719;12915
+375291471517;12916
+375298252549;12917
+375295141931;12918
+375336569379;12919
+375298125554;12920
+375336995913;12921
+375298663212;12922
+375295496251;12923
+375292502233;12924
+375291715822;12925
+375298831091;12926
+375333547988;12927
+375292129544;12928
+375295578515;12929
+375293153587;12930
+375297130330;12931
+375292889898;12932
+375255105983;12933
+375296753278;12934
+375296291731;12935
+375298149942;12936
+375298291624;12937
+375298152616;12938
+375333299932;12939
+375298513939;12940
+375295270814;12941
+375297701513;12942
+375291513168;12943
+375295174677;12944
+375297913889;12945
+375291192432;12946
+375299083485;12947
+375298133816;12948
+375256167100;12949
+375292644651;12950
+375445144150;12951
+375297937262;12952
+375291632908;12953
+375295161932;12954
+375291154064;12955
+375333555314;12956
+375447015733;12957
+375293116646;12958
+375447646498;12959
+375298022183;12960
+375293963712;12961
+375257034241;12962
+375292331206;12963
+375292073774;12964
+375298584643;12965
+375297697708;12966
+375299803410;12967
+375292590057;12968
+375336371250;12969
+375445630100;12970
+375336556137;12971
+375447257895;12972
+375298865127;12973
+375447189620;12974
+375255435376;12975
+375295153030;12976
+375295112704;12977
+375298946062;12978
+375447291617;12979
+375295980794;12980
+375293247679;12981
+375295037526;12982
+375296159207;12983
+375336868330;12984
+375333896003;12985
+375336016522;12986
+375292243384;12987
+375299955807;12988
+375298516548;12989
+375295866563;12990
+375298601827;12991
+375292603372;12992
+375292279982;12993
+375291733159;12994
+375295167088;12995
+375257124648;12996
+375292228701;12997
+375297059172;12998
+375336114695;12999
+375333753307;13000
+375447025016;13001
+375255055607;13002
+375336994344;13003
+375295428710;13004
+375256492767;13005
+375298828902;13006
+375296295152;13007
+375333938389;13008
+375297792815;13009
+375293066360;13010
+375336003395;13011
+375291550416;13012
+375333371337;13013
+375447499081;13014
+375295663531;13015
+375295444555;13016
+375297263139;13017
+375297627529;13018
+375297485673;13019
+375298708946;13020
+375257120001;13021
+375295734065;13022
+375333883724;13023
+375259984104;13024
+375293819619;13025
+375292572450;13026
+375336348765;13027
+375447512831;13028
+375292775177;13029
+375295068637;13030
+375445302017;13031
+375292471591;13032
+375299031788;13033
+375295702540;13034
+375291125853;13035
+375297962530;13036
+375297459898;13037
+375333177903;13038
+375291710210;13039
+375333231816;13040
+375295588513;13041
+375336471222;13042
+375255082114;13043
+375291305250;13044
+375296979908;13045
+375298710222;13046
+375292170691;13047
+375447405161;13048
+375295294597;13049
+375291204006;13050
+375333230268;13051
+375295992174;13052
+375336583769;13053
+375296857829;13054
+375293061016;13055
+375336021353;13056
+375259758736;13057
+375336220007;13058
+375296064909;13059
+375333828844;13060
+375445658429;13061
+375299696160;13062
+375299384908;13063
+375447194500;13064
+375295106104;13065
+375336361794;13066
+375336514847;13067
+375291245747;13068
+375297616330;13069
+375297267707;13070
+375296304020;13071
+375298993764;13072
+375445555257;13073
+375293904274;13074
+375293259858;13075
+375292029807;13076
+375298626427;13077
+375299709184;13078
+375292872470;13079
+375298357181;13080
+375259199334;13081
+375336069290;13082
+375293797792;13083
+375336413603;13084
+375445711221;13085
+375257944078;13086
+375296125362;13087
+375336413395;13088
+375256557820;13089
+375296313023;13090
+375336549344;13091
+375292260700;13092
+375447737758;13093
+375257536827;13094
+375444797546;13095
+375447499845;13096
+375299683812;13097
+375333464413;13098
+375291512639;13099
+375447134382;13100
+375293347553;13101
+375297086618;13102
+375295346822;13103
+375291897449;13104
+375293514828;13105
+375296305123;13106
+375293748405;13107
+375291069511;13108
+375292094862;13109
+375297943630;13110
+375447691758;13111
+375256913858;13112
+375295071795;13113
+375333040423;13114
+375298701570;13115
+375292478651;13116
+375259246869;13117
+375259776861;13118
+375445667497;13119
+375291164026;13120
+375333322511;13121
+375299599711;13122
+375445649106;13123
+375447070924;13124
+375297851552;13125
+375295022907;13126
+375447230710;13127
+375293220387;13128
+375292991127;13129
+375292507848;13130
+375298989009;13131
+375295850391;13132
+375291935571;13133
+375292112791;13134
+375293321549;13135
+375296679948;13136
+375336545406;13137
+375255022121;13138
+375291114160;13139
+375336635315;13140
+375298680644;13141
