+375291970883;2001
+375445372301;2002
+375447585998;2003
+375447817445;2004
+375296283736;2005
+375293584532;2006
+375292188275;2007
+375297393369;2008
+375296911449;2009
+375336954448;2010
+375255354472;2011
+375445398780;2012
+375336092763;2013
+375293748209;2014
+375293839683;2015
+375295123212;2016
+375172754430;2017
+375295060148;2018
+375445324161;2019
+375297793890;2020
+375291772598;2021
+375298508075;2022
+375292099586;2023
+375296700152;2024
+375297759427;2025
+375445649790;2026
+375297952974;2027
+375298725113;2028
+375295074237;2029
+375256827052;2030
+375333083671;2031
+375445965729;2032
+375292836556;2033
+375297266490;2034
+375293509358;2035
+375297968535;2036
+375295965787;2037
+375336221366;2038
+375333144000;2039
+375333610422;2040
+375336182818;2041
+375257927867;2042
+375259537196;2043
+375336888569;2044
+375333521639;2045
+375298378787;2046
+375297029455;2047
+375447786667;2048
+375296069955;2049
+375257679835;2050
+375293270965;2051
+375292250253;2052
+375154656453;2053
+375336524221;2054
+375447591457;2055
+375445373627;2056
+375293106110;2057
+375336944880;2058
+375298708701;2059
+375447495714;2060
+375298882297;2061
+375292454074;2062
+375297320856;2063
+375293664546;2064
+375333814290;2065
+375295043674;2066
+375295677661;2067
+375447999275;2068
+375447484406;2069
+375295612255;2070
+375444937602;2071
+375291394688;2072
+375336993492;2073
+375292457655;2074
+375259386463;2075
+375296210649;2076
+375259118235;2077
+375297391036;2078
+375447103120;2079
+375297895362;2080
+375333446264;2081
+375295383086;2082
+375296541456;2083
+375291047422;2084
+375292897471;2085
+375257739091;2086
+375447192826;2087
+375333009535;2088
+375255348358;2089
+375447391540;2090
+375259221289;2091
+375297891792;2092
+375292970830;2093
+375257012481;2094
+375445938089;2095
+375336002118;2096
+375297857923;2097
+375445521184;2098
+375259430969;2099
+375291789266;2100
+375296606333;2101
+375297702977;2102
+375257403250;2103
+375447609155;2104
+375298772743;2105
+375255413946;2106
+375295812787;2107
+375293661543;2108
+375339041684;2109
+375255370654;2110
+375291252356;2111
+375298865250;2112
+375295635278;2113
+375292072606;2114
+375297831849;2115
+375293165254;2116
+375336118776;2117
+375297192875;2118
+375445580727;2119
+375298986441;2120
+375298293233;2121
+375291594598;2122
+375291021008;2123
+375297365583;2124
+375293139434;2125
+375297207385;2126
+375257429950;2127
+375297569396;2128
+375297330155;2129
+375291792295;2130
+375293433363;2131
+375445886333;2132
+375256927825;2133
+375291554598;2134
+375295452206;2135
+375445533845;2136
+375297741902;2137
+375447274892;2138
+375297652556;2139
+375295384273;2140
+375447590171;2141
+375445326148;2142
+375296747423;2143
+375297141290;2144
+375298506362;2145
+375336201595;2146
+375296220987;2147
+375296859470;2148
+375296355199;2149
+375297291807;2150
+375291052637;2151
+375293131637;2152
+375447537345;2153
+375336847420;2154
+375295882966;2155
+375293820814;2156
+375292672987;2157
+375292940244;2158
+375298406001;2159
+375298830483;2160
+375259491710;2161
+375297668847;2162
+375257843477;2163
+375293447322;2164
+375292105837;2165
+375296012503;2166
+375257554219;2167
+375297139691;2168
+375297809229;2169
+375299192084;2170
+375296442857;2171
+375293069026;2172
+375447486410;2173
+375333251994;2174
+375291265650;2175
+375297250774;2176
+375291515808;2177
+375295220092;2178
+375298302429;2179
+375293152927;2180
+375295845249;2181
+375447630310;2182
+375259298221;2183
+375292356058;2184
+375333903583;2185
+375296981583;2186
+375291888034;2187
+375336697899;2188
+375292751542;2189
+375447530657;2190
+375336327131;2191
+375293629665;2192
+375445389961;2193
+375447225965;2194
+375296628243;2195
+375293607036;2196
+375291511958;2197
+375255110839;2198
+375445117247;2199
+375336074607;2200
+375293283389;2201
+375296078889;2202
+375299692018;2203
+375297552661;2204
+375291113819;2205
+375291097357;2206
+375293039565;2207
+375298902252;2208
+375447801560;2209
+375333330585;2210
+375298765642;2211
+375445579693;2212
+375291815064;2213
+375333118913;2214
+375447383010;2215
+375292479611;2216
+375447271499;2217
+375292319794;2218
+375292023064;2219
+375447431674;2220
+375445812895;2221
+375333801605;2222
+375257664056;2223
+375336293999;2224
+375296662609;2225
+375297947546;2226
+375293259761;2227
+375292330528;2228
+375297922811;2229
+375295113552;2230
+375291303533;2231
+375291435546;2232
+375336330468;2233
+375293336021;2234
+375333184637;2235
+375293351889;2236
+375296338399;2237
+375291302419;2238
+375296697207;2239
+375259967422;2240
+375295566665;2241
+375291158250;2242
+375297663948;2243
+375296349429;2244
+375292605397;2245
+375292471184;2246
+375445328344;2247
+375297462822;2248
+375255095648;2249
+375447463964;2250
+375292219216;2251
+375296749304;2252
+375257554903;2253
+375444665454;2254
+375333827623;2255
+375257885609;2256
+375293630152;2257
+375297121945;2258
+375447921996;2259
+375336359004;2260
+375292374100;2261
+375297230542;2262
+375293232444;2263
+375292140666;2264
+375447871710;2265
+375297888492;2266
+375295952738;2267
+375293913013;2268
+375336874179;2269
+375298231194;2270
+375298587695;2271
+375447355299;2272
+375292098499;2273
+375292991414;2274
+375291486306;2275
+375296573342;2276
+375295803254;2277
+375293186339;2278
+375444791727;2279
+375336391440;2280
+375293356448;2281
+375297900904;2282
+375298550426;2283
+375298285242;2284
+375293831964;2285
+375257841191;2286
+375333438372;2287
+375447997730;2288
+375293520149;2289
+375333798359;2290
+375293338998;2291
+375297478553;2292
+375295154980;2293
+375447640120;2294
+375295610103;2295
+375295261270;2296
+375295931031;2297
+375295534648;2298
+375293555998;2299
+375333825472;2300
+375296912401;2301
+375291218709;2302
+375293513734;2303
+375295895493;2304
+375296610814;2305
+375292193111;2306
+375336045986;2307
+375333665659;2308
+375297165675;2309
+375297544050;2310
+375295479825;2311
+375255024682;2312
+375447547826;2313
+375291808461;2314
+375293615170;2315
+375298233821;2316
+375298327686;2317
+375447008617;2318
+375298919200;2319
+375292606015;2320
+375447509149;2321
+375293467529;2322
+375291574790;2323
+375293178143;2324
+375295577029;2325
+375336741350;2326
+375298924123;2327
+375333892941;2328
+375297710586;2329
+375296409167;2330
+375292483751;2331
+375298916718;2332
+375293424227;2333
+375296339508;2334
+375292656307;2335
+375292019687;2336
+375296689304;2337
+375447621259;2338
+375295050337;2339
+375445665969;2340
+375296920709;2341
+375291328092;2342
+375296907620;2343
+375295024182;2344
+375292259791;2345
+375296411239;2346
+375297718031;2347
+375255466143;2348
+375447729244;2349
+375336137996;2350
+375296340919;2351
+375291839010;2352
+375295450199;2353
+375297040032;2354
+375336958408;2355
+375257915902;2356
+375333234787;2357
+375295703930;2358
+375291554754;2359
+375291679273;2360
+375295431096;2361
+375295893490;2362
+375297892720;2363
+375296540324;2364
+375297883450;2365
+375336657155;2366
+375336963292;2367
+375336125091;2368
+375255177188;2369
+375292170125;2370
+375296649007;2371
+375336315857;2372
+375297199384;2373
+375333126294;2374
+375336233274;2375
+375296956195;2376
+375293390338;2377
+375297125629;2378
+375259224691;2379
+375447235512;2380
+375293920123;2381
+375336667647;2382
+375293070176;2383
+375333718069;2384
+375298941213;2385
+375297544337;2386
+375293391864;2387
+375336456255;2388
+375336391155;2389
+375291119168;2390
+375296760206;2391
+375292896683;2392
+375336803913;2393
+375292864439;2394
+375447225430;2395
+375293955771;2396
+375296197240;2397
+375293306365;2398
+375445911069;2399
+375295150729;2400
+375292496674;2401
+375293836954;2402
+375336124777;2403
+375296300627;2404
+375336192258;2405
+375291419478;2406
+375293755070;2407
+375259689123;2408
+375298887240;2409
+375447613188;2410
+375293866300;2411
+375293408971;2412
+375259998799;2413
+375336369236;2414
+375295526387;2415
+375291973054;2416
+375336274598;2417
+375293892900;2418
+375297788059;2419
+375447393172;2420
+375291999990;2421
+375259215138;2422
+375297015529;2423
+375295828093;2424
+375296203367;2425
+375298557129;2426
+375297526364;2427
+375292722738;2428
+375292284059;2429
+375336593437;2430
+375297731293;2431
+375333211065;2432
+375297353999;2433
+375292177145;2434
+375445472425;2435
+375297836406;2436
+375292973558;2437
+375292282101;2438
+375296318499;2439
+375298077408;2440
+375255395572;2441
+375445388111;2442
+375333913575;2443
+375297117220;2444
+375445194456;2445
+375297761953;2446
+375259305237;2447
+375292906836;2448
+375295190054;2449
+375298186358;2450
+375339131379;2451
+375292462105;2452
+375336373871;2453
+375295507933;2454
+375292711606;2455
+375333751872;2456
+375297796013;2457
+375295319399;2458
+375291527207;2459
+375336437152;2460
+375447738029;2461
+375297697121;2462
+375298455336;2463
+375447229277;2464
+375297051878;2465
+375297788421;2466
+375255295196;2467
+375296733609;2468
+375297271527;2469
+375293269722;2470
+375447961947;2471
+375297282125;2472
+375293298416;2473
+375298015921;2474
+375445852633;2475
+375297524308;2476
+375295167728;2477
+375292521964;2478
+375296144391;2479
+375291196552;2480
+375447765111;2481
+375298464010;2482
+375296862640;2483
+375336575819;2484
+375259142281;2485
+375445513450;2486
+375293042234;2487
+375295146728;2488
+375298582111;2489
+375292320786;2490
+375295894763;2491
+375293175878;2492
+375297675715;2493
+375293936148;2494
+375333112716;2495
+375259052153;2496
+375291336117;2497
+375297264675;2498
+375257512295;2499
+375298886323;2500
+375292313190;2501
+375292010515;2502
+375297584616;2503
+375292447814;2504
+375296115351;2505
+375333839993;2506
+375336931405;2507
+375333901080;2508
+375297622625;2509
+375333055693;2510
+375296150499;2511
+375293917660;2512
+375295135861;2513
+375295116255;2514
+375447875910;2515
+375293378913;2516
+375333617527;2517
+375298318981;2518
+375256201921;2519
+375333511779;2520
+375333766660;2521
+375291111565;2522
+375295405527;2523
+375297984234;2524
+375291125999;2525
+375447520430;2526
+375447284264;2527
+375297138801;2528
+375257008501;2529
+375293891856;2530
+375295514117;2531
+375255306104;2532
+375333424450;2533
+375295533598;2534
+375259358369;2535
+375296903127;2536
+375445700620;2537
+375293432880;2538
+375291262427;2539
+375297220340;2540
+375447148378;2541
+375447846969;2542
+375333736052;2543
+375298852580;2544
+375336875222;2545
+375293179603;2546
+375255233385;2547
+375255060015;2548
+375336037391;2549
+375296895330;2550
+375295219022;2551
+375333219370;2552
+375291661777;2553
+375295008289;2554
+375293067997;2555
+375298683163;2556
+375333208111;2557
+375296370834;2558
+375333212539;2559
+375298600995;2560
+375447533561;2561
+375299999131;2562
+375447823456;2563
+375297761861;2564
+375298627211;2565
+375295804469;2566
+375259014196;2567
+375293313904;2568
+375256105941;2569
+375333424170;2570
+375445700426;2571
+375297490699;2572
+375292912102;2573
+375297450491;2574
+375263119536;2575
+375299644576;2576
+375297563799;2577
+375297976361;2578
+375336429479;2579
+375336577221;2580
+375291543941;2581
+375296170806;2582
+375447047765;2583
+375291526663;2584
+375295654560;2585
+375293271988;2586
+375292444820;2587
+375336214270;2588
+375296117814;2589
+375298148233;2590
+375297503722;2591
+375333078150;2592
+375295096527;2593
+375445366082;2594
+375339042579;2595
+375333661176;2596
+375296559403;2597
+375447398328;2598
+375296228184;2599
+375291263332;2600
+375293594643;2601
+375297165138;2602
+375292841344;2603
+375295554065;2604
+375255273783;2605
+375291603289;2606
+375336982285;2607
+375445540526;2608
+375293078999;2609
+375291280368;2610
+375295949193;2611
+375299144288;2612
+375297082929;2613
+375296247199;2614
+375447109646;2615
+375292650577;2616
+375336789518;2617
+375445385104;2618
+375299949919;2619
+375295921577;2620
+375297182496;2621
+375297319613;2622
+375291051290;2623
+375447169025;2624
+375291511788;2625
+375298081275;2626
+375296216790;2627
+375293484994;2628
+375293478937;2629
+375297115390;2630
+375296446983;2631
+375298171720;2632
+375336551804;2633
+375293182824;2634
+375296861240;2635
+375295879930;2636
+375298573528;2637
+375257015241;2638
+375445384197;2639
+375297750859;2640
+375445608238;2641
+375295433369;2642
+375297714857;2643
+375292284494;2644
+375299712076;2645
+375297146647;2646
+375447198954;2647
+375292239992;2648
+375445598939;2649
+375292837645;2650
+375296571800;2651
+375295240105;2652
+375295463958;2653
+375295019539;2654
+375447308522;2655
+375333018952;2656
+375292012253;2657
+375339045433;2658
+375293984460;2659
+375447842842;2660
+375298392105;2661
+375295273110;2662
+375295277456;2663
+375292787544;2664
+375298895261;2665
+375297894467;2666
+375333935373;2667
+375298311706;2668
+375295910710;2669
+375333710180;2670
+375295144395;2671
+375291790009;2672
+375333798673;2673
+375447696232;2674
+375292955463;2675
+375336674455;2676
+375297519081;2677
+375297068996;2678
+375298229975;2679
+375297204116;2680
+375297481218;2681
+375296841509;2682
+375447450672;2683
+375447441922;2684
+375299689355;2685
+375297155541;2686
+375298044174;2687
+375333186498;2688
+375333108877;2689
+375292268043;2690
+375445135384;2691
+375292684507;2692
+375336438904;2693
+375292418869;2694
+375255410045;2695
+375296999892;2696
+375298665459;2697
+375291245465;2698
+375296552791;2699
+375444789815;2700
+375447211049;2701
+375297423138;2702
+375291710981;2703
+375297607907;2704
+375295908226;2705
+375298233591;2706
+375296553039;2707
+375293268155;2708
+375298725862;2709
+375447899642;2710
+375257984999;2711
+375292662156;2712
+375295060312;2713
+375333904328;2714
+375299475155;2715
+375297151478;2716
+375293898766;2717
+375297449419;2718
+375292435838;2719
+375298075354;2720
+375291452492;2721
+375295239613;2722
+375257329371;2723
+375259135842;2724
+375292952369;2725
+375255072080;2726
+375297168845;2727
+375259289499;2728
+375291066360;2729
+375447132122;2730
+375336247863;2731
+375295956378;2732
+375293127068;2733
+375333286077;2734
+375447835710;2735
+375333358271;2736
+375291847330;2737
+375447492513;2738
+375297735035;2739
+375298583795;2740
+375292779230;2741
+375297491674;2742
+375292146815;2743
+375297671589;2744
+375292247579;2745
+375255419058;2746
+375295502692;2747
+375296765825;2748
+375333204719;2749
+375293364636;2750
+375291398332;2751
+375296686928;2752
+375293282486;2753
+375259447732;2754
+375336823170;2755
+375292773911;2756
+375336828583;2757
+375293508108;2758
+375295644883;2759
+375447680454;2760
+375291704907;2761
+375259002818;2762
+375297147384;2763
+375291617563;2764
+375291914847;2765
+375293195819;2766
+375255128544;2767
+375333243765;2768
+375296645591;2769
+375445908431;2770
+375296151811;2771
+375291536126;2772
+375297952979;2773
+375445166361;2774
+375257586190;2775
+375298123010;2776
+375291908368;2777
+375336823237;2778
+375256084701;2779
+375293089100;2780
+375445642848;2781
+375293305763;2782
+375295009974;2783
+375257162801;2784
+375295833274;2785
+375291538301;2786
+375297063289;2787
+375445816673;2788
+375297456678;2789
+375333831334;2790
+375333447849;2791
+375336235759;2792
+375255292827;2793
+375295977659;2794
+375255031281;2795
+375292555946;2796
+375293282466;2797
+375291463212;2798
+375447198556;2799
+375292454325;2800
+375295995714;2801
+375336856650;2802
+375333462553;2803
+375256064477;2804
+375295651717;2805
+375447392738;2806
+375298966212;2807
+375297167732;2808
+375445561007;2809
+375297294817;2810
+375259089146;2811
+375297523430;2812
+375447454533;2813
+375292182410;2814
+375298133344;2815
+375297210110;2816
+375296189992;2817
+375292832121;2818
+375297037190;2819
+375255232883;2820
+375298472105;2821
+375292562232;2822
+375298457793;2823
+375336390031;2824
+375298605874;2825
+375259440014;2826
+375445199764;2827
+375445690098;2828
+375291550429;2829
+375298416361;2830
+375445671985;2831
+375297202206;2832
+375295666289;2833
+375255192299;2834
+375298259051;2835
+375298917243;2836
+375291555559;2837
+375444501422;2838
+375295248624;2839
+375333057686;2840
+375291376006;2841
+375257007217;2842
+375445421790;2843
+375293974708;2844
+375336548116;2845
+375296761904;2846
+375447803384;2847
+375298172484;2848
+375298786306;2849
+375292320086;2850
+375447110347;2851
+375297633637;2852
+375255304518;2853
+375295744243;2854
+375297589417;2855
+375295725665;2856
+375333444700;2857
+375295442404;2858
+375291511062;2859
+375292815651;2860
+375297914894;2861
+375297043147;2862
+375295746609;2863
+375295818523;2864
+375445475743;2865
+375339130833;2866
+375293231240;2867
+375297509500;2868
+375447856473;2869
+375296537394;2870
+375445587604;2871
+375295812206;2872
+375297774395;2873
+375295016172;2874
+375297518863;2875
+375333145788;2876
+375298091212;2877
+375299450360;2878
+375298161006;2879
+375297924182;2880
+375296075267;2881
+375295507391;2882
+375296170880;2883
+375292814247;2884
+375296823477;2885
+375447437841;2886
+375292837641;2887
+375291229789;2888
+375336843485;2889
+375296061752;2890
+375257338943;2891
+375296893610;2892
+375297571432;2893
+375444896055;2894
+375447029703;2895
+375336669864;2896
+375293267112;2897
+375293618159;2898
+375297842094;2899
+375336899996;2900
+375336879604;2901
+375336260964;2902
+375296747061;2903
+375295407072;2904
+375296473447;2905
+375445618633;2906
+375296997889;2907
+375255264008;2908
+375298105874;2909
+375447965891;2910
+375259506961;2911
+375445336842;2912
+375447231835;2913
+375445550322;2914
+375259112475;2915
+375333923066;2916
+375259532061;2917
+375336371855;2918
+375257720450;2919
+375291101830;2920
+375292231937;2921
+375297290529;2922
+375293280060;2923
+375291203217;2924
+375291236215;2925
+375293257951;2926
+375293238249;2927
+375447260915;2928
+375445621734;2929
+375447362579;2930
+375293850773;2931
+375293670310;2932
+375296909473;2933
+375298039528;2934
+375296873099;2935
+375291394060;2936
+375336029129;2937
+375336972113;2938
+375255352613;2939
+375447989399;2940
+375298781445;2941
+375447612021;2942
+375336739863;2943
+375291464828;2944
+375292924905;2945
+375447102067;2946
+375296059967;2947
+375295090913;2948
+375293030957;2949
+375297207082;2950
+375295946858;2951
+375293697545;2952
+375336940271;2953
+375297186223;2954
+375292860023;2955
+375292997913;2956
+375257764426;2957
+375293836856;2958
+375296376110;2959
+375298110180;2960
+375292910099;2961
+375291568694;2962
+375293163605;2963
+375295596322;2964
+375297106476;2965
+375295371579;2966
+375297746813;2967
+375297079105;2968
+375293423463;2969
+375336242528;2970
+375336943292;2971
+375259180012;2972
+375257523083;2973
+375296844332;2974
+375291999006;2975
+375336091711;2976
+375292182586;2977
+375445159604;2978
+375208585956;2979
+375291933003;2980
+375259505114;2981
+375298673848;2982
+375295849813;2983
+375296427936;2984
+375257684781;2985
+375296775051;2986
+375292268117;2987
+375291131731;2988
+375297363490;2989
+375298384313;2990
+375292815051;2991
+375291927829;2992
+375291725205;2993
+375336238369;2994
+375297475681;2995
+375293199390;2996
+375447707751;2997
+375292879204;2998
+375296664668;2999
+375295595549;3000
